Badania Internetowe
…
Liczba pracujących wyniosła 67.7% w przypadku gdy oszacowanie przedstawimy na podstawie próby bez żadnej korekty. Następnie dokonamy korekty z wykorzystaniem informacji o wielkości populacji w poszczególnych warstwach. W pierwszej kolejności oszacujemy średnie według płci oraz województw.

## 1 – mężczyzna, 2 – kobieta
diagnoza_pracujacy <- diagnoza2015 %>%
  filter(wiek <= 59) %>%
  mutate(praca = as.numeric(czy_praca == 1)) %>%
  group_by(plec, woj) %>%
  summarise(praca = mean(praca))

diagnoza_pracujacy

## Source: local data frame [32 x 3]
## Groups: plec [?]
## 
##     plec   woj     praca
##    <dbl> <dbl>     <dbl>
## 1      1     2 0.7207637
## 2      1     4 0.7013699
## 3      1     6 0.7400000
## 4      1     8 0.7602041
## 5      1    10 0.7494781
## 6      1    12 0.7388781
## 7      1    14 0.7667436
## 8      1    16 0.7175926
## 9      1    18 0.6791980
## 10     1    20 0.7509434
## # ... with 22 more rows

W kolejnym kroku potrzebujemy informacji o liczbe osób w wieku produkcyjnym w tych przekrojach. Wykorzystamy w tym celu dane z rejestru PESEL skorygowanego przez informacje ze spisu powszechnego NSP 2011 (dane pobrane z BDL).

populacja_N <- populacja %>%
  filter(Płeć != 'ogółem') %>%
  mutate(plec = ifelse(Płeć == 'mężczyźni',1,2),
         woj = gsub('^\\d','',Kod),
         woj = substr(woj,1,2),
         woj = as.numeric(woj)) %>%
  count(woj, plec, wt = Wartosc)

populacja_N

## Source: local data frame [32 x 3]
## Groups: woj [?]
## 
##      woj  plec      n
##    <dbl> <dbl>  <dbl>
## 1      2     1 900219
## 2      2     2 895065
## 3      4     1 655776
## 4      4     2 649055
## 5      6     1 674529
## 6      6     2 652745
## 7      8     1 322278
## 8      8     2 314978
## 9     10     1 757248
## 10    10     2 755387
## # ... with 22 more rows
…
